…
    ## date created (size, mb): 2024-10-21 14:37:51.132323 (3.938)

    ## file min/max dates: 1949-10-01 / 2024-10-31

    ## using cached file: /Users/chimsom.agbim/Library/Caches/org.R-project.R/R/rnoaa/noaa_ghcnd/USS0023B17S.dly

    ## date created (size, mb): 2024-10-21 14:37:53.122688 (1.039)

    ## file min/max dates: 1999-09-01 / 2024-10-31

``` r
weather_df
```

    ## # A tibble: 2,190 × 6
    ##    name           id          date        prcp  tmax  tmin
    ##    <chr>          <chr>       <date>     <dbl> <dbl> <dbl>
    ##  1 CentralPark_NY USW00094728 2021-01-01   157   4.4   0.6
    ##  2 CentralPark_NY USW00094728 2021-01-02    13  10.6   2.2
    ##  3 CentralPark_NY USW00094728 2021-01-03    56   3.3   1.1
    ##  4 CentralPark_NY USW00094728 2021-01-04     5   6.1   1.7
    ##  5 CentralPark_NY USW00094728 2021-01-05     0   5.6   2.2
    ##  6 CentralPark_NY USW00094728 2021-01-06     0   5     1.1
    ##  7 CentralPark_NY USW00094728 2021-01-07     0   5    -1  
    ##  8 CentralPark_NY USW00094728 2021-01-08     0   2.8  -2.7
    ##  9 CentralPark_NY USW00094728 2021-01-09     0   2.8  -4.3
    ## 10 CentralPark_NY USW00094728 2021-01-10     0   5    -1.6
    ## # ℹ 2,180 more rows
…
## Data arguments in`geom`

I’m setting a data set for one set of data points, and then another data
set to plot as a line.

``` r
central_park = 
  weather_df %>% 
  filter (name == "CentralPark_NY")
central_park
```

    ## # A tibble: 730 × 6
    ##    name           id          date        prcp  tmax  tmin
    ##    <chr>          <chr>       <date>     <dbl> <dbl> <dbl>
    ##  1 CentralPark_NY USW00094728 2021-01-01   157   4.4   0.6
    ##  2 CentralPark_NY USW00094728 2021-01-02    13  10.6   2.2
    ##  3 CentralPark_NY USW00094728 2021-01-03    56   3.3   1.1
    ##  4 CentralPark_NY USW00094728 2021-01-04     5   6.1   1.7
    ##  5 CentralPark_NY USW00094728 2021-01-05     0   5.6   2.2
    ##  6 CentralPark_NY USW00094728 2021-01-06     0   5     1.1
    ##  7 CentralPark_NY USW00094728 2021-01-07     0   5    -1  
    ##  8 CentralPark_NY USW00094728 2021-01-08     0   2.8  -2.7
    ##  9 CentralPark_NY USW00094728 2021-01-09     0   2.8  -4.3
    ## 10 CentralPark_NY USW00094728 2021-01-10     0   5    -1.6
    ## # ℹ 720 more rows

``` r
Molokai =
  weather_df %>% 
  filter (name == "Molokai_HI")
Molokai
```

    ## # A tibble: 730 × 6
    ##    name       id          date        prcp  tmax  tmin
    ##    <chr>      <chr>       <date>     <dbl> <dbl> <dbl>
    ##  1 Molokai_HI USW00022534 2021-01-01     0  27.8  22.2
    ##  2 Molokai_HI USW00022534 2021-01-02     0  28.3  23.9
    ##  3 Molokai_HI USW00022534 2021-01-03     0  28.3  23.3
    ##  4 Molokai_HI USW00022534 2021-01-04     0  30    18.9
    ##  5 Molokai_HI USW00022534 2021-01-05     0  28.9  21.7
    ##  6 Molokai_HI USW00022534 2021-01-06     0  27.8  20  
    ##  7 Molokai_HI USW00022534 2021-01-07     0  29.4  21.7
    ##  8 Molokai_HI USW00022534 2021-01-08     0  28.3  18.3
    ##  9 Molokai_HI USW00022534 2021-01-09     0  27.8  18.9
    ## 10 Molokai_HI USW00022534 2021-01-10     0  28.3  18.9
    ## # ℹ 720 more rows
…
``` r
weather_df
```

    ## # A tibble: 2,190 × 6
    ##    name           id          date        prcp  tmax  tmin
    ##    <chr>          <chr>       <date>     <dbl> <dbl> <dbl>
    ##  1 CentralPark_NY USW00094728 2021-01-01   157   4.4   0.6
    ##  2 CentralPark_NY USW00094728 2021-01-02    13  10.6   2.2
    ##  3 CentralPark_NY USW00094728 2021-01-03    56   3.3   1.1
    ##  4 CentralPark_NY USW00094728 2021-01-04     5   6.1   1.7
    ##  5 CentralPark_NY USW00094728 2021-01-05     0   5.6   2.2
    ##  6 CentralPark_NY USW00094728 2021-01-06     0   5     1.1
    ##  7 CentralPark_NY USW00094728 2021-01-07     0   5    -1  
    ##  8 CentralPark_NY USW00094728 2021-01-08     0   2.8  -2.7
    ##  9 CentralPark_NY USW00094728 2021-01-09     0   2.8  -4.3
    ## 10 CentralPark_NY USW00094728 2021-01-10     0   5    -1.6
    ## # ℹ 2,180 more rows
